--------Error Log --- Time:23-Jun-17 -5:06:08 AM----Washlaundry\bbaratam--------Global.aspx---

System.Runtime.Remoting.RemotingException: Object '/d36d4bbc_19a9_4517_bd35_39e710c53a23/dnkptwjlnt9jpqkhqnv7v2zd_81.rem' has been disconnected or does not exist at the server.
   at System.Web.Http.WebHost.HttpControllerHandler.EndProcessRequest(IAsyncResult result)
   at System.Web.Http.WebHost.HttpControllerHandler.System.Web.IHttpAsyncHandler.EndProcessRequest(IAsyncResult result)
   at System.Web.HttpApplication.CallHandlerExecutionStep.OnAsyncHandlerCompletion(IAsyncResult ar)

--------Error Log --- Time:23-Jun-17 -5:25:51 AM----Washlaundry\bbaratam--------Global.aspx---

System.Runtime.Remoting.RemotingException: Object '/d36d4bbc_19a9_4517_bd35_39e710c53a23/50o_35gojgqdrikjpx+st7gt_324.rem' has been disconnected or does not exist at the server.
   at System.Web.Http.WebHost.HttpControllerHandler.EndProcessRequest(IAsyncResult result)
   at System.Web.Http.WebHost.HttpControllerHandler.System.Web.IHttpAsyncHandler.EndProcessRequest(IAsyncResult result)
   at System.Web.HttpApplication.CallHandlerExecutionStep.OnAsyncHandlerCompletion(IAsyncResult ar)

--------Error Log --- Time:23-Jun-17 -5:25:52 AM----Washlaundry\bbaratam--------Global.aspx---

System.Runtime.Remoting.RemotingException: Object '/d36d4bbc_19a9_4517_bd35_39e710c53a23/w7tfcqq_xfowzhzwj325n0bd_318.rem' has been disconnected or does not exist at the server.
   at System.Web.Http.WebHost.HttpControllerHandler.EndProcessRequest(IAsyncResult result)
   at System.Web.Http.WebHost.HttpControllerHandler.System.Web.IHttpAsyncHandler.EndProcessRequest(IAsyncResult result)
   at System.Web.HttpApplication.CallHandlerExecutionStep.OnAsyncHandlerCompletion(IAsyncResult ar)

