--------Error Log --- Time:24-May-16 -3:16:19 AM----Washlaundry\bbaratam--------Agreement---ULN:CA0000557

System.ArgumentException: Column 'TotalRntlPrice' does not belong to table Table.
   at System.Data.DataRow.GetDataColumn(String columnName)
   at System.Data.DataRow.get_Item(String columnName)
   at eLedgerBusiness.AgreementBusiness.getAgreementDetails(String uln) in e:\Knatarajan\eledger16032016\eLedgerBusiness\eLedgerBusiness\Business\AgreementBusiness.cs:line 171

--------Error Log --- Time:24-May-16 -3:17:01 AM----Washlaundry\bbaratam--------Global.aspx---

System.Runtime.Remoting.RemotingException: Object '/33e916f5_98be_4b8b_8fa0_1f39e0f16634/shy7hweq4x7dbo3yu9zvt19u_84.rem' has been disconnected or does not exist at the server.
   at System.Web.Http.WebHost.HttpControllerHandler.EndProcessRequest(IAsyncResult result)
   at System.Web.Http.WebHost.HttpControllerHandler.System.Web.IHttpAsyncHandler.EndProcessRequest(IAsyncResult result)
   at System.Web.HttpApplication.CallHandlerExecutionStep.OnAsyncHandlerCompletion(IAsyncResult ar)

--------Error Log --- Time:24-May-16 -5:44:54 AM----Washlaundry\bbaratam--------Global.aspx---

System.Runtime.Remoting.RemotingException: Object '/33e916f5_98be_4b8b_8fa0_1f39e0f16634/vfajtwv3kau8htr5qssrbzn5_354.rem' has been disconnected or does not exist at the server.
   at System.Web.Http.WebHost.HttpControllerHandler.EndProcessRequest(IAsyncResult result)
   at System.Web.Http.WebHost.HttpControllerHandler.System.Web.IHttpAsyncHandler.EndProcessRequest(IAsyncResult result)
   at System.Web.HttpApplication.CallHandlerExecutionStep.System.Web.HttpApplication.IExecutionStep.Execute()
   at System.Web.HttpApplication.ExecuteStep(IExecutionStep step, Boolean& completedSynchronously)

--------Error Log --- Time:24-May-16 -5:44:54 AM----Washlaundry\bbaratam--------Global.aspx---

System.Runtime.Remoting.RemotingException: Object '/33e916f5_98be_4b8b_8fa0_1f39e0f16634/xqgxzo8ne40eqwjbwwfgqk1f_342.rem' has been disconnected or does not exist at the server.
   at System.Web.Http.WebHost.HttpControllerHandler.EndProcessRequest(IAsyncResult result)
   at System.Web.Http.WebHost.HttpControllerHandler.System.Web.IHttpAsyncHandler.EndProcessRequest(IAsyncResult result)
   at System.Web.HttpApplication.CallHandlerExecutionStep.OnAsyncHandlerCompletion(IAsyncResult ar)

--------Error Log --- Time:24-May-16 -5:44:54 AM----Washlaundry\bbaratam--------Global.aspx---

System.Runtime.Remoting.RemotingException: Object '/33e916f5_98be_4b8b_8fa0_1f39e0f16634/+lgwynrztfi7jdd5twiashwc_345.rem' has been disconnected or does not exist at the server.
   at System.Web.Http.WebHost.HttpControllerHandler.EndProcessRequest(IAsyncResult result)
   at System.Web.Http.WebHost.HttpControllerHandler.System.Web.IHttpAsyncHandler.EndProcessRequest(IAsyncResult result)
   at System.Web.HttpApplication.CallHandlerExecutionStep.OnAsyncHandlerCompletion(IAsyncResult ar)

--------Error Log --- Time:24-May-16 -5:44:54 AM----Washlaundry\bbaratam--------Global.aspx---

System.Runtime.Remoting.RemotingException: Object '/33e916f5_98be_4b8b_8fa0_1f39e0f16634/l+0twxg6kkgiystr0f3esf2d_350.rem' has been disconnected or does not exist at the server.
   at System.Web.Http.WebHost.HttpControllerHandler.EndProcessRequest(IAsyncResult result)
   at System.Web.Http.WebHost.HttpControllerHandler.System.Web.IHttpAsyncHandler.EndProcessRequest(IAsyncResult result)
   at System.Web.HttpApplication.CallHandlerExecutionStep.OnAsyncHandlerCompletion(IAsyncResult ar)

