--------Error Log --- Time:19-May-16 -7:17:07 AM----Washlaundry\knatarajan--------Global.aspx---

System.Runtime.Remoting.RemotingException: Object '/7618236d_baf2_41d8_9580_6f061d25a5ae/t7gijb8iuqonq8gyg5txlae9_78.rem' has been disconnected or does not exist at the server.
   at System.Web.Http.WebHost.HttpControllerHandler.EndProcessRequest(IAsyncResult result)
   at System.Web.Http.WebHost.HttpControllerHandler.System.Web.IHttpAsyncHandler.EndProcessRequest(IAsyncResult result)
   at System.Web.HttpApplication.CallHandlerExecutionStep.OnAsyncHandlerCompletion(IAsyncResult ar)

--------Error Log --- Time:19-May-16 -7:27:20 AM----Washlaundry\knatarajan--------Global.aspx---

System.Runtime.Remoting.RemotingException: Object '/7618236d_baf2_41d8_9580_6f061d25a5ae/awyq3o7kvopjzj3sf+fnodhw_204.rem' has been disconnected or does not exist at the server.
   at System.Web.Http.WebHost.HttpControllerHandler.EndProcessRequest(IAsyncResult result)
   at System.Web.Http.WebHost.HttpControllerHandler.System.Web.IHttpAsyncHandler.EndProcessRequest(IAsyncResult result)
   at System.Web.HttpApplication.CallHandlerExecutionStep.OnAsyncHandlerCompletion(IAsyncResult ar)

--------Error Log --- Time:19-May-16 -7:43:21 AM----Washlaundry\knatarajan--------Global.aspx---

System.Runtime.Remoting.RemotingException: Object '/7618236d_baf2_41d8_9580_6f061d25a5ae/kkrfqnfwf0wcwjbhvsluo4jc_330.rem' has been disconnected or does not exist at the server.
   at System.Web.Http.WebHost.HttpControllerHandler.EndProcessRequest(IAsyncResult result)
   at System.Web.Http.WebHost.HttpControllerHandler.System.Web.IHttpAsyncHandler.EndProcessRequest(IAsyncResult result)
   at System.Web.HttpApplication.CallHandlerExecutionStep.OnAsyncHandlerCompletion(IAsyncResult ar)

--------Error Log --- Time:19-May-16 -7:43:24 AM----Washlaundry\knatarajan--------Global.aspx---

System.Runtime.Remoting.RemotingException: Object '/7618236d_baf2_41d8_9580_6f061d25a5ae/pftqg5j1s11ctoscpyl4diqc_333.rem' has been disconnected or does not exist at the server.
   at System.Web.Http.WebHost.HttpControllerHandler.EndProcessRequest(IAsyncResult result)
   at System.Web.Http.WebHost.HttpControllerHandler.System.Web.IHttpAsyncHandler.EndProcessRequest(IAsyncResult result)
   at System.Web.HttpApplication.CallHandlerExecutionStep.OnAsyncHandlerCompletion(IAsyncResult ar)

--------Error Log --- Time:19-May-16 -11:31:01 AM----Washlaundry\bbaratam--------Agreement---ULN:CA0000311

System.ArgumentException: Column 'TotalRntlPrice' does not belong to table Table.
   at System.Data.DataRow.GetDataColumn(String columnName)
   at System.Data.DataRow.get_Item(String columnName)
   at eLedgerBusiness.AgreementBusiness.getAgreementDetails(String uln) in e:\Knatarajan\eledger16032016\eLedgerBusiness\eLedgerBusiness\Business\AgreementBusiness.cs:line 171

--------Error Log --- Time:19-May-16 -11:32:53 AM----Washlaundry\bbaratam--------Agreement---ULN:ON5093911

System.ArgumentException: Column 'TotalRntlPrice' does not belong to table Table.
   at System.Data.DataRow.GetDataColumn(String columnName)
   at System.Data.DataRow.get_Item(String columnName)
   at eLedgerBusiness.AgreementBusiness.getAgreementDetails(String uln) in e:\Knatarajan\eledger16032016\eLedgerBusiness\eLedgerBusiness\Business\AgreementBusiness.cs:line 171

--------Error Log --- Time:19-May-16 -11:36:36 AM----Washlaundry\bbaratam--------Agreement---ULN:ON5093911

System.ArgumentException: Column 'TotalRntlPrice' does not belong to table Table.
   at System.Data.DataRow.GetDataColumn(String columnName)
   at System.Data.DataRow.get_Item(String columnName)
   at eLedgerBusiness.AgreementBusiness.getAgreementDetails(String uln) in e:\Knatarajan\eledger16032016\eLedgerBusiness\eLedgerBusiness\Business\AgreementBusiness.cs:line 171

