--------Error Log --- Time:14-Jun-16 -4:11:50 AM----Washlaundry\knatarajan--------Alert---ULN :CA7504256showHistory:0showFuture:0

System.InvalidOperationException: Timeout expired.  The timeout period elapsed prior to obtaining a connection from the pool.  This may have occurred because all pooled connections were in use and max pool size was reached.
   at eLedgerBusiness.DAL.WashDAL.getDataTable(String queryCode, ArrayList paramNames, ArrayList paramValues) in e:\Knatarajan\eledger16032016\eLedgerBusiness\eLedgerBusiness\DAL\WashDAL.cs:line 89
   at eLedgerBusiness.AlertBusiness.getAlertsULN(String ULN, Int32 showHistory, Int32 showFuture) in e:\Knatarajan\eledger16032016\eLedgerBusiness\eLedgerBusiness\Business\AlertBusiness.cs:line 89

--------Error Log --- Time:14-Jun-16 -4:20:22 AM----Washlaundry\knatarajan--------Global.aspx---

System.Runtime.Remoting.RemotingException: Object '/83aae501_e23d_4c4c_bef0_e0032e1741ef/hcnafphxfslfiblsjs9+yevl_90.rem' has been disconnected or does not exist at the server.
   at System.Web.Http.WebHost.HttpControllerHandler.EndProcessRequest(IAsyncResult result)
   at System.Web.Http.WebHost.HttpControllerHandler.System.Web.IHttpAsyncHandler.EndProcessRequest(IAsyncResult result)
   at System.Web.HttpApplication.CallHandlerExecutionStep.OnAsyncHandlerCompletion(IAsyncResult ar)

--------Error Log --- Time:14-Jun-16 -4:21:02 AM----Washlaundry\knatarajan--------LegalIssue---uln:ON0102998

System.Data.SqlClient.SqlException (0x80131904): A connection was successfully established with the server, but then an error occurred during the pre-login handshake. (provider: SSL Provider, error: 0 - The wait operation timed out.) ---> System.ComponentModel.Win32Exception (0x80004005): The wait operation timed out
   at eLedgerBusiness.DAL.WashDAL.getDataTable(String queryCode, ArrayList paramNames, ArrayList paramValues) in e:\Knatarajan\eledger16032016\eLedgerBusiness\eLedgerBusiness\DAL\WashDAL.cs:line 89
   at eLedgerBusiness.UserCredentials.GetUser(String _networkLogin) in e:\Knatarajan\eledger16032016\eLedgerBusiness\eLedgerBusiness\Business\UserCredentials.cs:line 68
   at eLedgerBusiness.LegalBusiness.LegalIssues(String uln) in e:\Knatarajan\eledger16032016\eLedgerBusiness\eLedgerBusiness\Business\LegalBusiness.cs:line 209
ClientConnectionId:2f4c0a77-8e37-44b3-9a2c-c4dcd0164ada
Error Number:258,State:0,Class:20

--------Error Log --- Time:14-Jun-16 -4:21:42 AM----Washlaundry\knatarajan--------RevenueSplit---uln:ON0102998splitRevenueNotes:showRecords:Allyear2015C

System.FormatException: Input string was not in a correct format.
   at System.Number.ParseSingle(String value, NumberStyles options, NumberFormatInfo numfmt)
   at System.Convert.ToSingle(String value)
   at eLedgerBusiness.RevenueBusiness.getRevenuedetails(String uln, String splitRevenueNotes, String showRecords, String year) in e:\Knatarajan\eledger16032016\eLedgerBusiness\eLedgerBusiness\Business\RevenueBusiness.cs:line 290

--------Error Log --- Time:14-Jun-16 -4:22:00 AM----Washlaundry\knatarajan--------RevenueSplit---uln:ON0102998splitRevenueNotes:showRecords:Allyear2015C

System.FormatException: Input string was not in a correct format.
   at System.Number.ParseSingle(String value, NumberStyles options, NumberFormatInfo numfmt)
   at System.Convert.ToSingle(String value)
   at eLedgerBusiness.RevenueBusiness.getRevenuedetails(String uln, String splitRevenueNotes, String showRecords, String year) in e:\Knatarajan\eledger16032016\eLedgerBusiness\eLedgerBusiness\Business\RevenueBusiness.cs:line 290

--------Error Log --- Time:14-Jun-16 -4:24:36 AM----Washlaundry\knatarajan--------RevenueSplit---uln:ON0102998splitRevenueNotes:showRecords:Allyear2015C

System.FormatException: Input string was not in a correct format.
   at System.Number.ParseSingle(String value, NumberStyles options, NumberFormatInfo numfmt)
   at System.Convert.ToSingle(String value)
   at eLedgerBusiness.RevenueBusiness.getRevenuedetails(String uln, String splitRevenueNotes, String showRecords, String year) in e:\Knatarajan\eledger16032016\eLedgerBusiness\eLedgerBusiness\Business\RevenueBusiness.cs:line 290

