--------Error Log --- Time:27-Sep-16 -10:22:18 PM----Washlaundry\bbaratam--------Agreement---ULN:AB5051460

System.ArgumentException: Column 'TotalRntlPrice' does not belong to table Table.
   at System.Data.DataRow.GetDataColumn(String columnName)
   at System.Data.DataRow.get_Item(String columnName)
   at eLedgerBusiness.AgreementBusiness.getAgreementDetails(String uln) in e:\Knatarajan\eledger16032016\eLedgerBusiness\eLedgerBusiness\Business\AgreementBusiness.cs:line 171

