--------Error Log --- Time:21-Jul-16 -7:16:57 AM----Washlaundry\bbaratam--------LegalIssue---uln:CA7517390

System.NullReferenceException: Object reference not set to an instance of an object.
   at eLedgerBusiness.LegalBusiness.LegalIssues(String uln) in e:\Knatarajan\eledger16032016\eLedgerBusiness\eLedgerBusiness\Business\LegalBusiness.cs:line 230

