--------Error Log --- Time:09-Jan-18 -5:31:37 AM----Washlaundry\vmuthuswamy--------RevenueSplit---uln:AB0063481splitRevenueNotes:showRecords:Allyear2017R

System.ArgumentException: Column 'TSREPercent' does not belong to table .
   at System.Data.DataRow.GetDataColumn(String columnName)
   at System.Data.DataRow.get_Item(String columnName)
   at eLedgerBusiness.RevenueBusiness.getRevenuedetails(String uln, String splitRevenueNotes, String showRecords, String year) in e:\Dev Projects\e-Ledger 2.0\eledger16032016\eLedgerBusiness\eLedgerBusiness\Business\RevenueBusiness.cs:line 364

--------Error Log --- Time:09-Jan-18 -5:31:55 AM----Washlaundry\vmuthuswamy--------RevenueSplit---uln:AB0063481splitRevenueNotes:showRecords:Allyear2017R

System.ArgumentException: Column 'TSREPercent' does not belong to table .
   at System.Data.DataRow.GetDataColumn(String columnName)
   at System.Data.DataRow.get_Item(String columnName)
   at eLedgerBusiness.RevenueBusiness.getRevenuedetails(String uln, String splitRevenueNotes, String showRecords, String year) in e:\Dev Projects\e-Ledger 2.0\eledger16032016\eLedgerBusiness\eLedgerBusiness\Business\RevenueBusiness.cs:line 364

--------Error Log --- Time:09-Jan-18 -5:38:27 AM----Washlaundry\vmuthuswamy--------RevenueSplit---uln:AB0063481splitRevenueNotes:showRecords:Allyear2017R

System.ArgumentException: Column 'TSREPercent' does not belong to table .
   at System.Data.DataRow.GetDataColumn(String columnName)
   at System.Data.DataRow.get_Item(String columnName)
   at eLedgerBusiness.RevenueBusiness.getRevenuedetails(String uln, String splitRevenueNotes, String showRecords, String year) in e:\Dev Projects\e-Ledger 2.0\eledger16032016\eLedgerBusiness\eLedgerBusiness\Business\RevenueBusiness.cs:line 364

--------Error Log --- Time:09-Jan-18 -5:39:02 AM----Washlaundry\vmuthuswamy--------RevenueSplit---uln:AB0063481splitRevenueNotes:showRecords:Allyear2017R

System.ArgumentException: Column 'TSREPercent' does not belong to table .
   at System.Data.DataRow.GetDataColumn(String columnName)
   at System.Data.DataRow.get_Item(String columnName)
   at eLedgerBusiness.RevenueBusiness.getRevenuedetails(String uln, String splitRevenueNotes, String showRecords, String year) in e:\Dev Projects\e-Ledger 2.0\eledger16032016\eLedgerBusiness\eLedgerBusiness\Business\RevenueBusiness.cs:line 364

--------Error Log --- Time:09-Jan-18 -5:42:00 AM----Washlaundry\vmuthuswamy--------RevenueSplit---uln:AB0063481splitRevenueNotes:showRecords:Allyear2017R

System.ArgumentException: Column 'TSREPercent' does not belong to table .
   at System.Data.DataRow.GetDataColumn(String columnName)
   at System.Data.DataRow.get_Item(String columnName)
   at eLedgerBusiness.RevenueBusiness.getRevenuedetails(String uln, String splitRevenueNotes, String showRecords, String year) in e:\Dev Projects\e-Ledger 2.0\eledger16032016\eLedgerBusiness\eLedgerBusiness\Business\RevenueBusiness.cs:line 364

--------Error Log --- Time:09-Jan-18 -5:43:02 AM----Washlaundry\vmuthuswamy--------RevenueSplit---uln:AB0063481splitRevenueNotes:showRecords:Allyear2017R

System.ArgumentException: Column 'TSREPercent' does not belong to table .
   at System.Data.DataRow.GetDataColumn(String columnName)
   at System.Data.DataRow.get_Item(String columnName)
   at eLedgerBusiness.RevenueBusiness.getRevenuedetails(String uln, String splitRevenueNotes, String showRecords, String year) in e:\Dev Projects\e-Ledger 2.0\eledger16032016\eLedgerBusiness\eLedgerBusiness\Business\RevenueBusiness.cs:line 364

--------Error Log --- Time:09-Jan-18 -5:51:53 AM----Washlaundry\vmuthuswamy--------RevenueSplit---uln:AB0063481splitRevenueNotes:showRecords:Allyear2017R

System.ArgumentException: Column 'TSREPercent' does not belong to table .
   at System.Data.DataRow.GetDataColumn(String columnName)
   at System.Data.DataRow.get_Item(String columnName)
   at eLedgerBusiness.RevenueBusiness.getRevenuedetails(String uln, String splitRevenueNotes, String showRecords, String year) in e:\Dev Projects\e-Ledger 2.0\eledger16032016\eLedgerBusiness\eLedgerBusiness\Business\RevenueBusiness.cs:line 364

--------Error Log --- Time:09-Jan-18 -5:52:17 AM----Washlaundry\vmuthuswamy--------RevenueSplit---uln:AB0063481splitRevenueNotes:showRecords:Allyear2017R

System.ArgumentException: Column 'TSREPercent' does not belong to table .
   at System.Data.DataRow.GetDataColumn(String columnName)
   at System.Data.DataRow.get_Item(String columnName)
   at eLedgerBusiness.RevenueBusiness.getRevenuedetails(String uln, String splitRevenueNotes, String showRecords, String year) in e:\Dev Projects\e-Ledger 2.0\eledger16032016\eLedgerBusiness\eLedgerBusiness\Business\RevenueBusiness.cs:line 364

--------Error Log --- Time:09-Jan-18 -5:56:47 AM----Washlaundry\vmuthuswamy--------RevenueSplit---uln:AB0063481splitRevenueNotes:showRecords:Allyear2017C

System.ArgumentException: Column 'TSREPercent' does not belong to table .
   at System.Data.DataRow.GetDataColumn(String columnName)
   at System.Data.DataRow.get_Item(String columnName)
   at eLedgerBusiness.RevenueBusiness.getRevenuedetails(String uln, String splitRevenueNotes, String showRecords, String year) in e:\Dev Projects\e-Ledger 2.0\eledger16032016\eLedgerBusiness\eLedgerBusiness\Business\RevenueBusiness.cs:line 364

--------Error Log --- Time:09-Jan-18 -6:03:46 AM----Washlaundry\vmuthuswamy--------RevenueSplit---uln:AB0063481splitRevenueNotes:showRecords:Allyear2017R

System.ArgumentException: Column 'TSREPercent' does not belong to table .
   at System.Data.DataRow.GetDataColumn(String columnName)
   at System.Data.DataRow.get_Item(String columnName)
   at eLedgerBusiness.RevenueBusiness.getRevenuedetails(String uln, String splitRevenueNotes, String showRecords, String year) in e:\Dev Projects\e-Ledger 2.0\eledger16032016\eLedgerBusiness\eLedgerBusiness\Business\RevenueBusiness.cs:line 364

--------Error Log --- Time:09-Jan-18 -6:07:36 AM----Washlaundry\vmuthuswamy--------RevenueSplit---uln:AB0063481splitRevenueNotes:showRecords:Allyear2017R

System.ArgumentException: Column 'TSREPercent' does not belong to table .
   at System.Data.DataRow.GetDataColumn(String columnName)
   at System.Data.DataRow.get_Item(String columnName)
   at eLedgerBusiness.RevenueBusiness.getRevenuedetails(String uln, String splitRevenueNotes, String showRecords, String year) in e:\Dev Projects\e-Ledger 2.0\eledger16032016\eLedgerBusiness\eLedgerBusiness\Business\RevenueBusiness.cs:line 364

--------Error Log --- Time:09-Jan-18 -6:10:29 AM----Washlaundry\vmuthuswamy--------RevenueSplit---uln:AB0063481splitRevenueNotes:showRecords:Allyear2017R

System.ArgumentException: Column 'TSREPercent' does not belong to table .
   at System.Data.DataRow.GetDataColumn(String columnName)
   at System.Data.DataRow.get_Item(String columnName)
   at eLedgerBusiness.RevenueBusiness.getRevenuedetails(String uln, String splitRevenueNotes, String showRecords, String year) in e:\Dev Projects\e-Ledger 2.0\eledger16032016\eLedgerBusiness\eLedgerBusiness\Business\RevenueBusiness.cs:line 364

--------Error Log --- Time:09-Jan-18 -6:16:24 AM----Washlaundry\vmuthuswamy--------RevenueSplit---uln:AB0063481splitRevenueNotes:showRecords:Allyear2017R

System.ArgumentException: Column 'TSREPercent' does not belong to table .
   at System.Data.DataRow.GetDataColumn(String columnName)
   at System.Data.DataRow.get_Item(String columnName)
   at eLedgerBusiness.RevenueBusiness.getRevenuedetails(String uln, String splitRevenueNotes, String showRecords, String year) in e:\Dev Projects\e-Ledger 2.0\eledger16032016\eLedgerBusiness\eLedgerBusiness\Business\RevenueBusiness.cs:line 364

--------Error Log --- Time:09-Jan-18 -6:16:52 AM----Washlaundry\vmuthuswamy--------RevenueSplit---uln:AB0063481splitRevenueNotes:showRecords:Allyear2017C

System.ArgumentException: Column 'TSREPercent' does not belong to table .
   at System.Data.DataRow.GetDataColumn(String columnName)
   at System.Data.DataRow.get_Item(String columnName)
   at eLedgerBusiness.RevenueBusiness.getRevenuedetails(String uln, String splitRevenueNotes, String showRecords, String year) in e:\Dev Projects\e-Ledger 2.0\eledger16032016\eLedgerBusiness\eLedgerBusiness\Business\RevenueBusiness.cs:line 364

--------Error Log --- Time:09-Jan-18 -6:20:07 AM----Washlaundry\vmuthuswamy--------RevenueSplit---uln:AB0063481splitRevenueNotes:showRecords:Allyear2016C

System.ArgumentException: Column 'TSREPercent' does not belong to table .
   at System.Data.DataRow.GetDataColumn(String columnName)
   at System.Data.DataRow.get_Item(String columnName)
   at eLedgerBusiness.RevenueBusiness.getRevenuedetails(String uln, String splitRevenueNotes, String showRecords, String year) in e:\Dev Projects\e-Ledger 2.0\eledger16032016\eLedgerBusiness\eLedgerBusiness\Business\RevenueBusiness.cs:line 364

