--------Error Log --- Time:06-Jun-17 -8:27:01 AM----Washlaundry\bbaratam--------Global.aspx---

System.Runtime.Remoting.RemotingException: Object '/556c07af_3dc0_41dc_ace6_29efb98e4ffa/4qwcyl99bhmt1wapjnm0ltsc_477.rem' has been disconnected or does not exist at the server.
   at System.Web.Http.WebHost.HttpControllerHandler.EndProcessRequest(IAsyncResult result)
   at System.Web.Http.WebHost.HttpControllerHandler.System.Web.IHttpAsyncHandler.EndProcessRequest(IAsyncResult result)
   at System.Web.HttpApplication.CallHandlerExecutionStep.OnAsyncHandlerCompletion(IAsyncResult ar)

--------Error Log --- Time:06-Jun-17 -8:49:02 AM----Washlaundry\bbaratam--------Global.aspx---

System.Runtime.Remoting.RemotingException: Object '/556c07af_3dc0_41dc_ace6_29efb98e4ffa/uisyzw6lmomu8w1hhne3lqnk_1056.rem' has been disconnected or does not exist at the server.
   at System.Web.Http.WebHost.HttpControllerHandler.EndProcessRequest(IAsyncResult result)
   at System.Web.Http.WebHost.HttpControllerHandler.System.Web.IHttpAsyncHandler.EndProcessRequest(IAsyncResult result)
   at System.Web.HttpApplication.CallHandlerExecutionStep.OnAsyncHandlerCompletion(IAsyncResult ar)

--------Error Log --- Time:06-Jun-17 -8:50:42 AM----Washlaundry\bbaratam--------Global.aspx---

System.Runtime.Remoting.RemotingException: Object '/556c07af_3dc0_41dc_ace6_29efb98e4ffa/d10r+d1vaynxp35pg9xjp6dj_1059.rem' has been disconnected or does not exist at the server.
   at System.Web.Http.WebHost.HttpControllerHandler.EndProcessRequest(IAsyncResult result)
   at System.Web.Http.WebHost.HttpControllerHandler.System.Web.IHttpAsyncHandler.EndProcessRequest(IAsyncResult result)
   at System.Web.HttpApplication.CallHandlerExecutionStep.OnAsyncHandlerCompletion(IAsyncResult ar)

--------Error Log --- Time:06-Jun-17 -9:04:37 AM----Washlaundry\bbaratam--------loccontact---ULN:CA8604330

System.Data.SqlClient.SqlException (0x80131904): Invalid column name 'street sd'.
   at eLedgerBusiness.DAL.WashDAL.getDataTable(String queryCode, ArrayList paramNames, ArrayList paramValues) in e:\Knatarajan\eledger16032016\eLedgerBusiness\eLedgerBusiness\DAL\WashDAL.cs:line 89
   at eLedgerBusiness.ContactBusiness.getlocContacts(String uln) in e:\Knatarajan\eledger16032016\eLedgerBusiness\eLedgerBusiness\Business\ContactBusiness.cs:line 131
ClientConnectionId:baf065aa-fd0d-4c90-a47e-b6b1236b7ec0
Error Number:207,State:1,Class:16

--------Error Log --- Time:06-Jun-17 -9:05:10 AM----Washlaundry\bbaratam--------Agreement---ULN:CA8604330

System.Data.SqlClient.SqlException (0x80131904): Connection Timeout Expired.  The timeout period elapsed while attempting to consume the pre-login handshake acknowledgement.  This could be because the pre-login handshake failed or the server was unable to respond back in time.  The duration spent while attempting to connect to this server was - [Pre-Login] initialization=1014; handshake=21580;  ---> System.ComponentModel.Win32Exception (0x80004005): The wait operation timed out
   at eLedgerBusiness.DAL.WashDAL.getDataTable(String queryCode, ArrayList paramNames, ArrayList paramValues) in e:\Knatarajan\eledger16032016\eLedgerBusiness\eLedgerBusiness\DAL\WashDAL.cs:line 89
   at eLedgerBusiness.AgreementBusiness.getAgreementDetails(String uln) in e:\Knatarajan\eledger16032016\eLedgerBusiness\eLedgerBusiness\Business\AgreementBusiness.cs:line 70
ClientConnectionId:550f4157-7206-48ff-9b84-8d2e2d696881
Error Number:-2,State:0,Class:11

